simulation/qsim/Projeto1.msim.vcd
$comment
	File created using the following command:
		vcd file Projeto1.msim.vcd -direction
$end
$date
	Tue Aug 19 17:07:06 2025
$end
$version
	ModelSim Version 10.5b
$end
$timescale
	1ps
$end

$scope module projeto1_vhd_vec_tst $end
$var wire 1 ! clear $end
$var wire 1 " clk $end
$var wire 1 # timer [9] $end
$var wire 1 $ timer [8] $end
$var wire 1 % timer [7] $end
$var wire 1 & timer [6] $end
$var wire 1 ' timer [5] $end
$var wire 1 ( timer [4] $end
$var wire 1 ) timer [3] $end
$var wire 1 * timer [2] $end
$var wire 1 + timer [1] $end
$var wire 1 , timer [0] $end

$scope module i1 $end
$var wire 1 - gnd $end
$var wire 1 . vcc $end
$var wire 1 / unknown $end
$var wire 1 0 devoe $end
$var wire 1 1 devclrn $end
$var wire 1 2 devpor $end
$var wire 1 3 ww_devoe $end
$var wire 1 4 ww_devclrn $end
$var wire 1 5 ww_devpor $end
$var wire 1 6 ww_timer [9] $end
$var wire 1 7 ww_timer [8] $end
$var wire 1 8 ww_timer [7] $end
$var wire 1 9 ww_timer [6] $end
$var wire 1 : ww_timer [5] $end
$var wire 1 ; ww_timer [4] $end
$var wire 1 < ww_timer [3] $end
$var wire 1 = ww_timer [2] $end
$var wire 1 > ww_timer [1] $end
$var wire 1 ? ww_timer [0] $end
$var wire 1 @ ww_clear $end
$var wire 1 A ww_clk $end
$var wire 1 B \~QUARTUS_CREATED_ADC1~_CHSEL_bus\ [4] $end
$var wire 1 C \~QUARTUS_CREATED_ADC1~_CHSEL_bus\ [3] $end
$var wire 1 D \~QUARTUS_CREATED_ADC1~_CHSEL_bus\ [2] $end
$var wire 1 E \~QUARTUS_CREATED_ADC1~_CHSEL_bus\ [1] $end
$var wire 1 F \~QUARTUS_CREATED_ADC1~_CHSEL_bus\ [0] $end
$var wire 1 G \~QUARTUS_CREATED_ADC2~_CHSEL_bus\ [4] $end
$var wire 1 H \~QUARTUS_CREATED_ADC2~_CHSEL_bus\ [3] $end
$var wire 1 I \~QUARTUS_CREATED_ADC2~_CHSEL_bus\ [2] $end
$var wire 1 J \~QUARTUS_CREATED_ADC2~_CHSEL_bus\ [1] $end
$var wire 1 K \~QUARTUS_CREATED_ADC2~_CHSEL_bus\ [0] $end
$var wire 1 L \clk~inputclkctrl_INCLK_bus\ [3] $end
$var wire 1 M \clk~inputclkctrl_INCLK_bus\ [2] $end
$var wire 1 N \clk~inputclkctrl_INCLK_bus\ [1] $end
$var wire 1 O \clk~inputclkctrl_INCLK_bus\ [0] $end
$var wire 1 P \~QUARTUS_CREATED_UNVM~~busy\ $end
$var wire 1 Q \~QUARTUS_CREATED_ADC1~~eoc\ $end
$var wire 1 R \~QUARTUS_CREATED_ADC2~~eoc\ $end
$var wire 1 S \timer[9]~output_o\ $end
$var wire 1 T \timer[8]~output_o\ $end
$var wire 1 U \timer[7]~output_o\ $end
$var wire 1 V \timer[6]~output_o\ $end
$var wire 1 W \timer[5]~output_o\ $end
$var wire 1 X \timer[4]~output_o\ $end
$var wire 1 Y \timer[3]~output_o\ $end
$var wire 1 Z \timer[2]~output_o\ $end
$var wire 1 [ \timer[1]~output_o\ $end
$var wire 1 \ \timer[0]~output_o\ $end
$var wire 1 ] \clk~input_o\ $end
$var wire 1 ^ \clk~inputclkctrl_outclk\ $end
$var wire 1 _ \inst|LPM_COUNTER_component|auto_generated|counter_comb_bita0~combout\ $end
$var wire 1 ` \~GND~combout\ $end
$var wire 1 a \clear~input_o\ $end
$var wire 1 b \inst|LPM_COUNTER_component|auto_generated|counter_comb_bita0~COUT\ $end
$var wire 1 c \inst|LPM_COUNTER_component|auto_generated|counter_comb_bita1~combout\ $end
$var wire 1 d \inst|LPM_COUNTER_component|auto_generated|counter_comb_bita1~COUT\ $end
$var wire 1 e \inst|LPM_COUNTER_component|auto_generated|counter_comb_bita2~combout\ $end
$var wire 1 f \inst|LPM_COUNTER_component|auto_generated|counter_comb_bita2~COUT\ $end
$var wire 1 g \inst|LPM_COUNTER_component|auto_generated|counter_comb_bita3~combout\ $end
$var wire 1 h \inst|LPM_COUNTER_component|auto_generated|counter_comb_bita3~COUT\ $end
$var wire 1 i \inst|LPM_COUNTER_component|auto_generated|counter_comb_bita4~combout\ $end
$var wire 1 j \inst|LPM_COUNTER_component|auto_generated|counter_comb_bita4~COUT\ $end
$var wire 1 k \inst|LPM_COUNTER_component|auto_generated|counter_comb_bita5~combout\ $end
$var wire 1 l \inst|LPM_COUNTER_component|auto_generated|counter_comb_bita5~COUT\ $end
$var wire 1 m \inst|LPM_COUNTER_component|auto_generated|counter_comb_bita6~combout\ $end
$var wire 1 n \inst|LPM_COUNTER_component|auto_generated|counter_comb_bita6~COUT\ $end
$var wire 1 o \inst|LPM_COUNTER_component|auto_generated|counter_comb_bita7~combout\ $end
$var wire 1 p \inst|LPM_COUNTER_component|auto_generated|counter_comb_bita7~COUT\ $end
$var wire 1 q \inst|LPM_COUNTER_component|auto_generated|counter_comb_bita8~combout\ $end
$var wire 1 r \inst|LPM_COUNTER_component|auto_generated|counter_comb_bita8~COUT\ $end
$var wire 1 s \inst|LPM_COUNTER_component|auto_generated|counter_comb_bita9~combout\ $end
$var wire 1 t \inst|LPM_COUNTER_component|auto_generated|counter_reg_bit\ [9] $end
$var wire 1 u \inst|LPM_COUNTER_component|auto_generated|counter_reg_bit\ [8] $end
$var wire 1 v \inst|LPM_COUNTER_component|auto_generated|counter_reg_bit\ [7] $end
$var wire 1 w \inst|LPM_COUNTER_component|auto_generated|counter_reg_bit\ [6] $end
$var wire 1 x \inst|LPM_COUNTER_component|auto_generated|counter_reg_bit\ [5] $end
$var wire 1 y \inst|LPM_COUNTER_component|auto_generated|counter_reg_bit\ [4] $end
$var wire 1 z \inst|LPM_COUNTER_component|auto_generated|counter_reg_bit\ [3] $end
$var wire 1 { \inst|LPM_COUNTER_component|auto_generated|counter_reg_bit\ [2] $end
$var wire 1 | \inst|LPM_COUNTER_component|auto_generated|counter_reg_bit\ [1] $end
$var wire 1 } \inst|LPM_COUNTER_component|auto_generated|counter_reg_bit\ [0] $end
$upscope $end
$upscope $end
$enddefinitions $end
#0
$dumpvars
0!
0"
0-
1.
x/
10
11
12
13
14
15
0@
0A
zP
zQ
zR
0S
0T
0U
0V
0W
0X
0Y
0Z
0[
0\
0]
0^
1_
0`
0a
0b
0c
1d
0e
0f
0g
1h
0i
0j
0k
1l
0m
0n
0o
1p
0q
0r
0s
06
07
08
09
0:
0;
0<
0=
0>
0?
0t
0u
0v
0w
0x
0y
0z
0{
0|
0}
1L
1M
1N
0O
0B
0C
0D
0E
0F
0G
0H
0I
0J
0K
0#
0$
0%
0&
0'
0(
0)
0*
0+
0,
$end
#10000
1"
1A
1]
1O
1^
1}
1\
0_
1b
1?
1c
1,
#20000
0"
0A
0]
0O
0^
#30000
1"
1A
1]
1O
1^
0}
1|
1[
0\
0c
0d
1_
0b
1>
0?
1c
1d
1e
0,
1+
0e
#40000
0"
0A
0]
0O
0^
#50000
1"
1A
1]
1O
1^
1}
1\
0_
1b
1?
0c
0d
1,
1e
#60000
0"
0A
0]
0O
0^
#70000
1"
1A
1]
1O
1^
0}
0|
1{
1Z
0[
0\
0e
1f
1c
1d
1_
0b
1=
0>
0?
0c
1e
0f
1g
0,
0+
1*
0g
#80000
0"
0A
0]
0O
0^
#90000
1"
1A
1]
1O
1^
1}
1\
0_
1b
1?
1c
1,
#100000
0"
0A
0]
0O
0^
#110000
1"
1A
1]
1O
1^
0}
1|
1[
0\
0c
0d
1_
0b
1>
0?
1c
1d
0e
1f
0,
1+
1g
1e
0f
0g
#120000
0"
0A
0]
0O
0^
#130000
1"
1A
1]
1O
1^
1}
1\
0_
1b
1?
0c
0d
1,
0e
1f
1g
#140000
0"
0A
0]
0O
0^
#150000
1"
1A
1]
1O
1^
0}
0|
0{
1z
1Y
0Z
0[
0\
0g
0h
1e
0f
1c
1d
1_
0b
1<
0=
0>
0?
0c
0e
1g
1h
1i
0,
0+
0*
1)
0i
#160000
0"
0A
0]
0O
0^
#170000
1"
1A
1]
1O
1^
1}
1\
0_
1b
1?
1c
1,
#180000
0"
0A
0]
0O
0^
#190000
1"
1A
1]
1O
1^
0}
1|
1[
0\
0c
0d
1_
0b
1>
0?
1c
1d
1e
0,
1+
0e
#200000
0"
0A
0]
0O
0^
#210000
1"
1A
1]
1O
1^
1}
1\
0_
1b
1?
0c
0d
1,
1e
#220000
0"
0A
0]
0O
0^
#230000
1"
1A
1]
1O
1^
0}
0|
1{
1Z
0[
0\
0e
1f
1c
1d
1_
0b
1=
0>
0?
0c
1e
0f
0g
0h
0,
0+
1*
1i
1g
1h
0i
#240000
0"
0A
0]
0O
0^
#250000
1"
1A
1]
1O
1^
1}
1\
0_
1b
1?
1c
1,
#260000
0"
0A
0]
0O
0^
#270000
1"
1A
1]
1O
1^
0}
1|
1[
0\
0c
0d
1_
0b
1>
0?
1c
1d
0e
1f
0,
1+
0g
0h
1e
0f
1g
1h
1i
0i
#280000
0"
0A
0]
0O
0^
#290000
1"
1A
1]
1O
1^
1}
1\
0_
1b
1?
0c
0d
1,
0e
1f
0g
0h
1i
#300000
0"
0A
0]
0O
0^
#310000
1"
1A
1]
1O
1^
0}
0|
0{
0z
1y
1X
0Y
0Z
0[
0\
0i
1j
1g
1h
1e
0f
1c
1d
1_
0b
1;
0<
0=
0>
0?
0c
0e
0g
1i
0j
1k
0,
0+
0*
0)
1(
0k
#320000
0"
0A
0]
0O
0^
#330000
1"
1A
1]
1O
1^
1}
1\
0_
1b
1?
1c
1,
#340000
0"
0A
0]
0O
0^
#350000
1"
1A
1]
1O
1^
0}
1|
1[
0\
0c
0d
1_
0b
1>
0?
1c
1d
1e
0,
1+
0e
#360000
0"
0A
0]
0O
0^
#370000
1"
1!
1A
1@
1a
1]
1O
1^
0|
0y
0X
0[
0i
0c
0;
0>
0+
0(
#380000
0"
0A
0]
0O
0^
#390000
1"
1A
1]
1O
1^
#400000
0"
0A
0]
0O
0^
#410000
1"
0!
1A
0@
0a
1]
1O
1^
1}
1\
0_
1b
1?
1c
1,
#420000
0"
0A
0]
0O
0^
#430000
1"
1A
1]
1O
1^
0}
1|
1[
0\
0c
0d
1_
0b
1>
0?
1c
1d
1e
0,
1+
0e
#440000
0"
0A
0]
0O
0^
#450000
1"
1A
1]
1O
1^
1}
1\
0_
1b
1?
0c
0d
1,
1e
#460000
0"
0A
0]
0O
0^
#470000
1"
1A
1]
1O
1^
0}
0|
1{
1Z
0[
0\
0e
1f
1c
1d
1_
0b
1=
0>
0?
0c
1e
0f
1g
0,
0+
1*
0g
#480000
0"
0A
0]
0O
0^
#490000
1"
1A
1]
1O
1^
1}
1\
0_
1b
1?
1c
1,
#500000
0"
0A
0]
0O
0^
#510000
1"
1A
1]
1O
1^
0}
1|
1[
0\
0c
0d
1_
0b
1>
0?
1c
1d
0e
1f
0,
1+
1g
1e
0f
0g
#520000
0"
0A
0]
0O
0^
#530000
1"
1A
1]
1O
1^
1}
1\
0_
1b
1?
0c
0d
1,
0e
1f
1g
#540000
0"
0A
0]
0O
0^
#550000
1"
1A
1]
1O
1^
0}
0|
0{
1z
1Y
0Z
0[
0\
0g
0h
1e
0f
1c
1d
1_
0b
1<
0=
0>
0?
0c
0e
1g
1h
1i
0,
0+
0*
1)
0i
#560000
0"
0A
0]
0O
0^
#570000
1"
1A
1]
1O
1^
1}
1\
0_
1b
1?
1c
1,
#580000
0"
0A
0]
0O
0^
#590000
1"
1A
1]
1O
1^
0}
1|
1[
0\
0c
0d
1_
0b
1>
0?
1c
1d
1e
0,
1+
0e
#600000
0"
0A
0]
0O
0^
#610000
1"
1A
1]
1O
1^
1}
1\
0_
1b
1?
0c
0d
1,
1e
#620000
0"
0A
0]
0O
0^
#630000
1"
1A
1]
1O
1^
0}
0|
1{
1Z
0[
0\
0e
1f
1c
1d
1_
0b
1=
0>
0?
0c
1e
0f
0g
0h
0,
0+
1*
1i
1g
1h
0i
#640000
0"
0A
0]
0O
0^
#650000
1"
1A
1]
1O
1^
1}
1\
0_
1b
1?
1c
1,
#660000
0"
0A
0]
0O
0^
#670000
1"
1A
1]
1O
1^
0}
1|
1[
0\
0c
0d
1_
0b
1>
0?
1c
1d
0e
1f
0,
1+
0g
0h
1e
0f
1g
1h
1i
0i
#680000
0"
0A
0]
0O
0^
#690000
1"
1A
1]
1O
1^
1}
1\
0_
1b
1?
0c
0d
1,
0e
1f
0g
0h
1i
#700000
0"
0A
0]
0O
0^
#710000
1"
1A
1]
1O
1^
0}
0|
0{
0z
1y
1X
0Y
0Z
0[
0\
0i
1j
1g
1h
1e
0f
1c
1d
1_
0b
1;
0<
0=
0>
0?
0c
0e
0g
1i
0j
1k
0,
0+
0*
0)
1(
0k
#720000
0"
0A
0]
0O
0^
#730000
1"
1A
1]
1O
1^
1}
1\
0_
1b
1?
1c
1,
#740000
0"
0A
0]
0O
0^
#750000
1"
1A
1]
1O
1^
0}
1|
1[
0\
0c
0d
1_
0b
1>
0?
1c
1d
1e
0,
1+
0e
#760000
0"
0A
0]
0O
0^
#770000
1"
1A
1]
1O
1^
1}
1\
0_
1b
1?
0c
0d
1,
1e
#780000
0"
0A
0]
0O
0^
#790000
1"
1A
1]
1O
1^
0}
0|
1{
1Z
0[
0\
0e
1f
1c
1d
1_
0b
1=
0>
0?
0c
1e
0f
1g
0,
0+
1*
0g
#800000
0"
0A
0]
0O
0^
#810000
1"
1A
1]
1O
1^
1}
1\
0_
1b
1?
1c
1,
#820000
0"
0A
0]
0O
0^
#830000
1"
1A
1]
1O
1^
0}
1|
1[
0\
0c
0d
1_
0b
1>
0?
1c
1d
0e
1f
0,
1+
1g
1e
0f
0g
#840000
0"
0A
0]
0O
0^
#850000
1"
1A
1]
1O
1^
1}
1\
0_
1b
1?
0c
0d
1,
0e
1f
1g
#860000
0"
0A
0]
0O
0^
#870000
1"
1A
1]
1O
1^
0}
0|
0{
1z
1Y
0Z
0[
0\
0g
0h
1e
0f
1c
1d
1_
0b
1<
0=
0>
0?
0c
0e
1g
1h
0i
1j
0,
0+
0*
1)
1k
1i
0j
0k
#880000
0"
0A
0]
0O
0^
#890000
1"
1A
1]
1O
1^
1}
1\
0_
1b
1?
1c
1,
#900000
0"
0A
0]
0O
0^
#910000
1"
1A
1]
1O
1^
0}
1|
1[
0\
0c
0d
1_
0b
1>
0?
1c
1d
1e
0,
1+
0e
#920000
0"
0A
0]
0O
0^
#930000
1"
1A
1]
1O
1^
1}
1\
0_
1b
1?
0c
0d
1,
1e
#940000
0"
0A
0]
0O
0^
#950000
1"
1A
1]
1O
1^
0}
0|
1{
1Z
0[
0\
0e
1f
1c
1d
1_
0b
1=
0>
0?
0c
1e
0f
0g
0h
0,
0+
1*
0i
1j
1g
1h
1i
0j
1k
0k
#960000
0"
0A
0]
0O
0^
#970000
1"
1A
1]
1O
1^
1}
1\
0_
1b
1?
1c
1,
#980000
0"
0A
0]
0O
0^
#990000
1"
1A
1]
1O
1^
0}
1|
1[
0\
0c
0d
1_
0b
1>
0?
1c
1d
0e
1f
0,
1+
0g
0h
1e
0f
1g
1h
0i
1j
1k
1i
0j
0k
