StateMachineA3/simulation/qsim/StateMachine.msim.vcd
$comment
	File created using the following command:
		vcd file StateMachine.msim.vcd -direction
$end
$date
	Tue Sep 09 17:20:27 2025
$end
$version
	ModelSim Version 10.5b
$end
$timescale
	1ps
$end

$scope module StateMachine_vlg_vec_tst $end
$var reg 1 ! clock $end
$var reg 1 " Enable $end
$var reg 1 # reset $end
$var reg 1 $ Sentido $end
$var wire 1 % Saida1 $end
$var wire 1 & Saida2 $end

$scope module i1 $end
$var wire 1 ' gnd $end
$var wire 1 ( vcc $end
$var wire 1 ) unknown $end
$var tri1 1 * devclrn $end
$var tri1 1 + devpor $end
$var tri1 1 , devoe $end
$var wire 1 - ~QUARTUS_CREATED_GND~I_combout $end
$var wire 1 . ~QUARTUS_CREATED_UNVM~~busy $end
$var wire 1 / ~QUARTUS_CREATED_ADC1~~eoc $end
$var wire 1 0 ~QUARTUS_CREATED_ADC2~~eoc $end
$var wire 1 1 Saida1~output_o $end
$var wire 1 2 Saida2~output_o $end
$var wire 1 3 clock~input_o $end
$var wire 1 4 clock~inputclkctrl_outclk $end
$var wire 1 5 reset~input_o $end
$var wire 1 6 Enable~input_o $end
$var wire 1 7 Sentido~input_o $end
$var wire 1 8 inst|reg_fstate.S1~0_combout $end
$var wire 1 9 inst|reg_fstate.S2~0_combout $end
$var wire 1 : inst|reg_fstate.S2~1_combout $end
$var wire 1 ; inst|fstate.S2~q $end
$var wire 1 < inst|reg_fstate.S3~0_combout $end
$var wire 1 = inst|reg_fstate.S3~1_combout $end
$var wire 1 > inst|fstate.S3~q $end
$var wire 1 ? inst|reg_fstate.S0~0_combout $end
$var wire 1 @ inst|reg_fstate.S0~1_combout $end
$var wire 1 A inst|fstate.S0~q $end
$var wire 1 B inst|reg_fstate.S1~1_combout $end
$var wire 1 C inst|reg_fstate.S1~2_combout $end
$var wire 1 D inst|fstate.S1~q $end
$var wire 1 E inst|reg_Saida1~0_combout $end
$var wire 1 F inst|Saida1~q $end
$var wire 1 G inst|reg_Saida2~0_combout $end
$var wire 1 H inst|Saida2~q $end
$upscope $end
$upscope $end
$enddefinitions $end
#0
$dumpvars
0!
1"
0#
0$
0%
0&
0'
1(
x)
1*
1+
1,
0-
z.
z/
z0
01
02
03
04
05
16
07
08
09
0:
0;
1<
1=
0>
0?
1@
0A
0B
0C
0D
1E
0F
1G
0H
$end
#10000
1!
13
14
1A
1>
1H
1F
11
12
0<
19
1&
1%
0E
0=
1:
#20000
0!
03
04
#30000
1!
13
14
0>
1;
0F
01
09
1B
0%
0G
0:
1C
#40000
0!
03
04
#50000
1!
13
14
1D
0;
0H
02
0B
1?
0&
1E
0C
0@
#60000
0!
03
04
#70000
1!
13
14
0D
0A
1F
11
0?
1<
1%
1G
1@
1=
#80000
0!
03
04
#90000
1!
13
14
1A
1>
1H
12
0<
19
1&
0E
0=
1:
#100000
0!
03
04
#110000
1!
13
14
0>
1;
0F
01
09
1B
0%
0G
0:
1C
#120000
0!
03
04
#130000
1!
13
14
1D
0;
0H
02
0B
1?
0&
1E
0C
0@
#140000
0!
03
04
#150000
1!
13
14
0D
0A
1F
11
0?
1<
1%
1G
1@
1=
#160000
0!
03
04
#170000
1!
13
14
1A
1>
1H
12
0<
19
1&
0E
0=
1:
#180000
0!
03
04
#190000
1!
13
14
0>
1;
0F
01
09
1B
0%
0G
0:
1C
#200000
0!
03
04
#210000
1!
13
14
1D
0;
0H
02
0B
1?
0&
1E
0C
0@
#220000
0!
03
04
#230000
1!
13
14
0D
0A
1F
11
0?
1<
1%
1G
1@
1=
#240000
0!
03
04
#250000
1!
13
14
1A
1>
1H
12
0<
19
1&
0E
0=
1:
#260000
0!
03
04
#270000
1!
13
14
0>
1;
0F
01
09
1B
0%
0G
0:
1C
#280000
0!
03
04
#290000
1!
13
14
1D
0;
0H
02
0B
1?
0&
1E
0C
0@
#300000
0!
03
04
#310000
1!
13
14
0D
0A
1F
11
0?
1<
1%
1G
1@
1=
#320000
0!
03
04
#330000
1!
13
14
1A
1>
1H
12
0<
19
1&
0E
0=
1:
#340000
0!
03
04
#350000
1!
13
14
0>
1;
0F
01
09
1B
0%
0G
0:
1C
#360000
0!
03
04
#370000
1!
13
14
1D
0;
0H
02
0B
1?
0&
1E
0C
0@
#380000
0!
03
04
#390000
1!
13
14
0D
0A
1F
11
0?
1<
1%
1G
1@
1=
#400000
0!
03
04
#410000
1!
13
14
1A
1>
1H
12
0<
19
1&
0E
0=
1:
#420000
0!
03
04
#430000
1!
13
14
0>
1;
0F
01
09
1B
0%
0G
0:
1C
#440000
0!
03
04
#450000
1!
13
14
1D
0;
0H
02
0B
1?
0&
1E
0C
0@
#460000
0!
03
04
#470000
1!
13
14
0D
0A
1F
11
0?
1<
1%
1G
1@
1=
#480000
0!
03
04
#490000
1!
13
14
1A
1>
1H
12
0<
19
1&
0E
0=
1:
#500000
0!
03
04
#510000
1!
13
14
0>
1;
0F
01
09
1B
0%
0G
0:
1C
#520000
0!
03
04
#530000
1!
13
14
1D
0;
0H
02
0B
1?
0&
1E
0C
0@
#540000
0!
03
04
#550000
1!
13
14
0D
0A
1F
11
0?
1<
1%
1G
1@
1=
#560000
0!
03
04
#570000
1!
13
14
1A
1>
1H
12
0<
19
1&
0E
0=
1:
#580000
0!
03
04
#590000
1!
13
14
0>
1;
0F
01
09
1B
0%
0G
0:
1C
#600000
0!
03
04
#610000
1!
13
14
1D
0;
0H
02
0B
1?
0&
1E
0C
0@
#620000
0!
03
04
#630000
1!
13
14
0D
0A
1F
11
0?
1<
1%
1G
1@
1=
#640000
0!
03
04
#650000
1!
13
14
1A
1>
1H
12
0<
19
1&
0E
0=
1:
#660000
0!
03
04
#670000
1!
13
14
0>
1;
0F
01
09
1B
0%
0G
0:
1C
#680000
0!
03
04
#690000
1!
13
14
1D
0;
0H
02
0B
1?
0&
1E
0C
0@
#700000
0!
03
04
#710000
1!
13
14
0D
0A
1F
11
0?
1<
1%
1G
1@
1=
#720000
0!
03
04
#730000
1!
13
14
1A
1>
1H
12
0<
19
1&
0E
0=
1:
#740000
0!
03
04
#750000
1!
13
14
0>
1;
0F
01
09
1B
0%
0G
0:
1C
#760000
0!
03
04
#770000
1!
13
14
1D
0;
0H
02
0B
1?
0&
1E
0C
0@
#780000
0!
03
04
#790000
1!
13
14
0D
0A
1F
11
0?
1<
1%
1G
1@
1=
#800000
0!
03
04
#810000
1!
13
14
1A
1>
1H
12
0<
19
1&
0E
0=
1:
#820000
0!
03
04
#830000
1!
13
14
0>
1;
0F
01
09
1B
0%
0G
0:
1C
#840000
0!
03
04
#850000
1!
13
14
1D
0;
0H
02
0B
1?
0&
1E
0C
0@
#860000
0!
03
04
#870000
1!
13
14
0D
0A
1F
11
0?
1<
1%
1G
1@
1=
#880000
0!
03
04
#890000
1!
13
14
1A
1>
1H
12
0<
19
1&
0E
0=
1:
#900000
0!
03
04
#910000
1!
13
14
0>
1;
0F
01
09
1B
0%
0G
0:
1C
#920000
0!
03
04
#930000
1!
13
14
1D
0;
0H
02
0B
1?
0&
1E
0C
0@
#940000
0!
03
04
#950000
1!
13
14
0D
0A
1F
11
0?
1<
1%
1G
1@
1=
#960000
0!
03
04
#970000
1!
13
14
1A
1>
1H
12
0<
19
1&
0E
0=
1:
#980000
0!
03
04
#990000
1!
13
14
0>
1;
0F
01
09
1B
0%
0G
0:
1C
